…
``` r
# install.packages("remotes")
remotes::install_github("xmarquez/GWFdata")
```

## Examples

This is a data-only package. Just type the name of the dataset you want.
The main dataset is `gwf`.

``` r
library(GWFdata)
gwf
#> # A tibble: 4,591 × 140
#>    cowcode  year gwf_country gwf_casename gwf_caseid gwf_case_duration
#>      <dbl> <dbl> <chr>       <chr>             <dbl>             <dbl>
#>  1      40  1953 Cuba        Cuba 52-59           78                 1
#>  2      40  1954 Cuba        Cuba 52-59           78                 2
#>  3      40  1955 Cuba        Cuba 52-59           78                 3
#>  4      40  1956 Cuba        Cuba 52-59           78                 4
#>  5      40  1957 Cuba        Cuba 52-59           78                 5
#>  6      40  1958 Cuba        Cuba 52-59           78                 6
#>  7      40  1959 Cuba        Cuba 52-59           78                 7
#>  8      40  1960 Cuba        Cuba 59-NA           79                 1
#>  9      40  1961 Cuba        Cuba 59-NA           79                 2
#> 10      40  1962 Cuba        Cuba 59-NA           79                 3
#> # ℹ 4,581 more rows
#> # ℹ 134 more variables: gwf_case_fail <dbl>, gwf_startdate <date>,
#> #   gwf_enddate <date>, gwf_fail_subsregime <dbl>, gwf_fail_type <dbl>,
#> #   gwf_fail_violent <dbl>, gwf_prior <chr>, gwf_firstldr <dbl>,
#> #   gwf_leadername <chr>, gwf_leaderid <dbl>, gwf_leader_duration <dbl>,
#> #   gwf_leader_fail <dbl>, gwf_leader_firstyear <dbl>, region <chr>,
#> #   foreignimposd <dbl>, supportparty <dbl>, partyleader <dbl>, …
```
…
